{
  "required": true,
  "package": "de.d4n1el89.ce.mixin",
  "compatibilityLevel": "JAVA_8",
  "mixins": [
  ],
  "client": [
    "MixinChatHud",
    "IChatScreen"
  ],
  "injectors": {
    "defaultRequire": 1
  }
}
